{
    "key": "group_625f92443f5b3",
    "title": "Client Hosting",
    "fields": [
        {
            "key": "field_625f937d760f4",
            "label": "Client",
            "name": "client",
            "type": "post_object",
            "instructions": "",
            "required": 0,
            "conditional_logic": 0,
            "wrapper": {
                "width": "",
                "class": "",
                "id": ""
            },
            "post_type": [
                "client"
            ],
            "taxonomy": "",
            "allow_null": 0,
            "multiple": 0,
            "return_format": "object",
            "ui": 1
        },
        {
            "key": "field_625f92510479c",
            "label": "Who is hosting?",
            "name": "who_is_hosting",
            "type": "checkbox",
            "instructions": "",
            "required": 0,
            "conditional_logic": 0,
            "wrapper": {
                "width": "",
                "class": "",
                "id": ""
            },
            "choices": {
                "Baseline Creative": "Baseline Creative",
                "Client": "Client"
            },
            "allow_custom": 0,
            "default_value": [],
            "layout": "vertical",
            "toggle": 0,
            "return_format": "label",
            "save_custom": 0
        },
        {
            "key": "field_625f92a2315b2",
            "label": "Hosting Cost",
            "name": "hosting_cost",
            "type": "text",
            "instructions": "",
            "required": 0,
            "conditional_logic": 0,
            "wrapper": {
                "width": "",
                "class": "",
                "id": ""
            },
            "default_value": "",
            "placeholder": "",
            "prepend": "$",
            "append": "",
            "maxlength": ""
        },
        {
            "key": "field_625f92ac315b3",
            "label": "Recurrence",
            "name": "recurrence",
            "type": "radio",
            "instructions": "",
            "required": 0,
            "conditional_logic": 0,
            "wrapper": {
                "width": "",
                "class": "",
                "id": ""
            },
            "choices": {
                "Monthly": "Monthly",
                "Annual": "Annual"
            },
            "allow_null": 0,
            "other_choice": 0,
            "default_value": "Monthly",
            "layout": "vertical",
            "return_format": "label",
            "save_other_choice": 0
        }
    ],
    "location": [
        [
            {
                "param": "post_type",
                "operator": "==",
                "value": "post"
            }
        ]
    ],
    "menu_order": 0,
    "position": "normal",
    "style": "default",
    "label_placement": "top",
    "instruction_placement": "label",
    "hide_on_screen": "",
    "active": true,
    "description": "",
    "show_in_rest": 0,
    "modified": 1650430895
}